<?xml version="1.0" standalone="no"?>
<!DOCTYPE svg PUBLIC "-//W3C//DTD SVG 20010904//EN"
 "http://www.w3.org/TR/2001/REC-SVG-20010904/DTD/svg10.dtd">
<svg version="1.0" xmlns="http://www.w3.org/2000/svg"
 width="700.000000pt" height="700.000000pt" viewBox="0 0 700.000000 700.000000"
 preserveAspectRatio="xMidYMid meet">
<metadata>
Created by potrace 1.11, written by Peter Selinger 2001-2013
</metadata>
<g transform="translate(0.000000,700.000000) scale(0.100000,-0.100000)"
fill="#000000" stroke="none">
<path d="M1631 6404 c-218 -47 -398 -224 -452 -444 -21 -82 -21 -4838 0 -4920
54 -221 236 -399 456 -445 105 -22 3625 -22 3730 0 220 46 402 224 456 445 21
82 21 4838 0 4920 -55 223 -234 398 -456 445 -102 21 -3635 21 -3734 -1z
m3251 -676 c76 -35 151 -107 185 -177 24 -49 28 -68 28 -151 0 -82 -4 -103
-26 -151 -50 -107 -133 -175 -247 -204 -51 -13 -223 -15 -1348 -13 l-1289 3
-57 23 c-80 32 -150 99 -190 180 -30 62 -33 74 -32 162 0 75 4 105 22 143 43
95 149 182 249 206 22 5 605 8 1343 8 l1305 -2 57 -27z m-2469 -1246 c75 -35
139 -98 175 -172 24 -49 27 -67 27 -155 0 -95 -2 -103 -34 -163 -68 -124 -181
-194 -316 -195 -160 -1 -288 88 -346 242 -27 72 -23 191 9 264 42 93 147 181
249 207 66 16 168 4 236 -28z m1237 2 c70 -31 150 -111 183 -181 18 -39 22
-66 22 -148 0 -95 -2 -103 -34 -163 -145 -266 -505 -261 -648 10 -25 48 -28
63 -28 153 0 82 4 109 22 147 44 95 149 182 250 208 63 16 166 4 233 -26z
m1240 0 c71 -32 151 -111 181 -181 47 -106 33 -250 -33 -349 -68 -101 -178
-158 -303 -157 -135 1 -248 71 -316 195 -32 60 -34 68 -34 163 0 88 3 106 27
155 47 96 142 174 245 200 63 16 166 4 233 -26z m-2480 -1166 c81 -38 134 -89
172 -166 30 -61 33 -74 33 -162 0 -82 -4 -103 -27 -152 -34 -73 -103 -142
-176 -176 -49 -23 -70 -27 -152 -27 -82 0 -103 4 -152 27 -249 116 -281 464
-57 621 74 52 128 67 224 64 60 -2 93 -9 135 -29z m1242 0 c72 -33 142 -103
176 -176 23 -49 27 -70 27 -152 0 -82 -4 -103 -27 -152 -34 -73 -103 -142
-176 -176 -49 -23 -70 -27 -152 -27 -82 0 -103 4 -152 27 -73 34 -142 103
-176 176 -23 49 -27 70 -27 152 0 77 4 104 22 143 45 98 116 163 216 199 75
27 193 21 269 -14z m1244 -3 c74 -36 138 -101 172 -173 23 -49 27 -70 27 -152
0 -82 -4 -103 -27 -152 -34 -73 -103 -142 -176 -176 -49 -23 -70 -27 -153 -27
-90 0 -100 2 -164 35 -284 145 -249 568 54 665 75 24 195 15 267 -20z m-2486
-1237 c81 -38 134 -89 172 -166 30 -61 33 -74 33 -162 0 -82 -4 -103 -27 -152
-34 -73 -103 -142 -176 -176 -49 -23 -70 -27 -152 -27 -82 0 -103 4 -152 27
-73 34 -142 103 -176 176 -23 49 -27 70 -27 152 0 77 4 104 22 143 45 98 116
163 216 199 75 27 193 21 267 -14z m1242 0 c72 -33 142 -103 176 -176 23 -49
27 -70 27 -152 0 -82 -4 -103 -27 -152 -34 -73 -103 -142 -176 -176 -49 -23
-70 -27 -152 -27 -82 0 -103 4 -152 27 -73 34 -142 103 -176 176 -23 49 -27
70 -27 152 0 77 4 104 22 143 45 98 116 163 216 199 75 27 193 21 269 -14z
m1240 0 c72 -33 142 -103 176 -176 23 -49 27 -70 27 -152 0 -85 -3 -101 -29
-154 -37 -76 -101 -140 -174 -174 -49 -23 -70 -27 -152 -27 -82 0 -103 4 -152
27 -208 97 -274 367 -134 551 38 51 111 102 175 122 71 23 193 15 263 -17z"/>
</g>
</svg>
