<svg xmlns="http://www.w3.org/2000/svg" viewBox="0 0 24 24" width="24" height="24" fill="black">
    <path d="M5 3h14v17h-14v-17z" fill="white" />

    <path d="M18 2H6c-1.1 0-2 .9-2 2v16c0 1.1.9 2 2 2h12c1.1 0 2-.9 2-2V4c0-1.1-.9-2-2-2zM6 4.25h10.25a1 1 0 0 1 0 2.5h-8.5a1 1 0 0 1 0 -2.5zM7.75 8.5a1 1 0 0 1 0 2.5a1 1 0 0 1 0 -2.5zM12 8.5a1 1 0 0 1 0 2.5a1 1 0 0 1 0 -2.5zM16.25 8.5a1 1 0 0 1 0 2.5a1 1 0 0 1 0 -2.5zM7.75 12.5a1 1 0 0 1 0 2.5a1 1 0 0 1 0 -2.5zM12 12.5a1 1 0 0 1 0 2.5a1 1 0 0 1 0 -2.5zM16.25 12.5a1 1 0 0 1 0 2.5a1 1 0 0 1 0 -2.5zM7.75 16.75a1 1 0 0 1 0 2.5a1 1 0 0 1 0 -2.5zM12 16.75a1 1 0 0 1 0 2.5a1 1 0 0 1 0 -2.5zM16.25 16.75a1 1 0 0 1 0 2.5a1 1 0 0 1 0 -2.5z"/>
</svg>
